{
    "alumni": [
        {
            "name": "John Smith",
            "gradYear": "2020",
            "major": "Computer Science",
            "location": "San Francisco, CA",
            "job": "Software Engineer",
            "team": "Engineering",
            "legacy": "Implemented several key features of the company's flagship product."
        },
        {
            "name": "Jane Doe",
            "gradYear": "2018",
            "major": "Marketing",
            "location": "New York, NY",
            "job": "Marketing Manager",
            "team": "Marketing",
            "legacy": "Developed and executed several successful marketing campaigns."
        }
    ]
}